,Product_Line,Product_Category
0,Ariba Network,Supplier Relationship Management
1,SAP 3D Visual Enterprise,Product Lifecycle Management
2,SAP Accelerated Trade Promotion Planning,Customer Relationship Management
3,SAP Access Control,Financial Management
4,SAP Account Substantiation and Automation by BlackLine,Financial Management
5,SAP Adaptive Server Enterprise,Data Management
6,SAP Advanced Data Migration by Syniti,Technology Platform
7,SAP Advanced Planning and Optimization,Supply Chain Management
8,SAP Advantage Database Server,Data Management
9,SAP Agricultural Contract Management,Supply Chain Management
10,SAP Analytics Cloud,Analytics
11,SAP Analytics Hub,Analytics
12,SAP Application Interface Framework,Technology Platform
13,SAP Archiving and Document Access by OpenText,Financial Management
14,SAP Assessment Management by Questionmark,Human Capital Management
15,SAP Asset Information Workbench by Utopia,Enterprise Management
16,SAP Asset Manager,Enterprise Management
17,SAP BW/4HANA,Data Management
18,SAP Business One,Enterprise Management
19,SAP Business Planning and Consolidation,Financial Management
20,SAP BusinessObjects Business Intelligence,Analytics
21,SAP Cloud Applications Studio,Technology Platform
22,SAP Cloud Platform,Technology Platform
23,SAP Cloud for Customer,Customer Relationship Management
24,SAP Commerce Cloud,Customer Relationship Management
25,SAP Commercial Project Management,Product Lifecycle Management
26,SAP Contact Center,Customer Relationship Management
27,SAP Content Stream by Skillsoft,Content and Collaboration
28,SAP Crystal Reports,Analytics
29,SAP Crystal Server,Analytics
30,SAP Customer Checkout,Customer Relationship Management
31,SAP Customer Data Cloud,Customer Relationship Management
32,SAP Dairy Management by msg,Product Lifecycle Management
33,SAP Data Custodian,Data Management
34,SAP Data Hub,Data Management
35,SAP Data Maintenance for SAP ERP by Vistex,Data Management
36,SAP Data Services,Data Management
37,SAP Direct Store Delivery,Supply Chain Management
38,SAP Document Presentment by OpenText,Content and Collaboration
39,SAP Dynamic Authorization Management by NextLabs,Financial Management
40,SAP Dynamic Pricing by GK,Customer Relationship Management
41,SAP EHS Regulatory Content,Product Lifecycle Management
42,SAP ERP,Enterprise Management
43,SAP Edge Services,Technology Platform
44,SAP Enable Now,Human Capital Management
45,SAP Enterprise Architecture Designer,Enterprise Management
46,SAP Enterprise Inventory and Service-Level Optimization,Supply Chain Management
47,SAP Enterprise Learning,Human Capital Management
48,SAP Enterprise Project Connection,Product Lifecycle Management
49,SAP Enterprise Threat Detection,Technology Platform
50,SAP Entitlement Management,Enterprise Management
51,SAP Environmental Compliance,Product Lifecycle Management
52,SAP Extended Enterprise Content Management by OpenText,Content and Collaboration
53,SAP Extended Warehouse Management,Supply Chain Management
54,SAP Financial Consolidation,Financial Management
55,SAP Fiori,Technology Platform
56,SAP Fortify by Micro Focus,Technology Platform
57,SAP Geographical Enablement Framework,Technology Platform
58,SAP Global Trade Services,Financial Management
59,SAP Grower Management for Perishables by Vistex,Supply Chain Management
60,SAP HANA,Technology Platform
61,SAP IQ,Data Management
62,SAP Information Steward,Data Management
63,SAP Innovation Management,Product Lifecycle Management
64,SAP Integrated Business Planning,Supply Chain Management
65,SAP Intercompany Financial Hub by BlackLine,Financial Management
66,SAP Invoice Management by OpenText,Financial Management
67,SAP Landscape Management,Technology Platform
68,SAP Landscape Transformation,Data Management
69,SAP LoadRunner by Micro Focus,Technology Platform
70,SAP Lumira,Analytics
71,SAP Marketing Cloud,Customer Relationship Management
72,SAP Master Data Governance,Data Management
73,SAP Multi-Bank Connectivity,Financial Management
74,SAP NetWeaver,Technology Platform
75,SAP Operational Process Intelligence,Technology Platform
76,SAP Payment Engine,Financial Management
77,SAP Portfolio and Project Management,Product Lifecycle Management
78,SAP PowerDesigner,Data Management
79,SAP Process Control,Financial Management
80,SAP Product Lifecycle Costing,Product Lifecycle Management
81,SAP Profitability and Performance Management,Financial Management
82,SAP Quality Center by Micro Focus,Technology Platform
83,SAP REACH Compliance,Product Lifecycle Management
84,SAP Real-Time Offer Management,Customer Relationship Management
85,SAP Regulation Management by Greenlight,Financial Management
86,SAP Replication Server,Data Management
87,SAP Revenue Accounting and Reporting,Financial Management
88,SAP Risk Management,Financial Management
89,SAP Rural Sourcing Management,Supplier Relationship Management
90,SAP S/4HANA,Enterprise Management
91,SAP SQL Anywhere,Data Management
92,SAP Sales Cloud,Customer Relationship Management
93,SAP Screen Personas,Technology Platform
94,SAP Service Cloud,Customer Relationship Management
95,SAP Signature Management by DocuSign,Customer Relationship Management
96,SAP Sports One,Analytics
97,SAP Supplier InfoNet,Supplier Relationship Management
98,SAP Time and Attendance Management by WorkForce Software,Human Capital Management
99,SAP Trade Promotion Optimization,Customer Relationship Management
100,SAP Trade Repository Reporting by Virtusa,Financial Management
101,SAP Transportation Management,Supply Chain Management
102,SAP Transportation Resource Planning,Supply Chain Management
103,SAP Treasury and Risk Management,Financial Management
104,SAP User Experience Management by Knoa,Technology Platform
105,SAP Work Manager,Enterprise Management
106,SAP Yard Logistics,Supply Chain Management
