﻿Product_Line,Product_Category
SAP Access Control,Financial Management
SAP Access Control,Financial Management
SAP Access Control,Financial Management
SAP Acrobat Connect Professional,Content and Collaboration
SAP Acrobat Connect Professional,Content and Collaboration
SAP Business One,Enterprise Management
SAP Business One,Enterprise Management
SAP Business One,Enterprise Management
SAP Business One,Enterprise Management
SAP Business One,Enterprise Management
SAP Business One,Enterprise Management
banking services from SAP,Financial Management
banking services from SAP,Financial Management
SAP Financial Consolidation,Financial Management
SAP Funds Transfer Pricing,Financial Management
SAP BusinessObjects Business Intelligence,Analytics
SAP BusinessObjects Business Intelligence,Analytics
SAP BusinessObjects Business Intelligence,Analytics
SAP Text Analysis,Data Management
SAP Access Control,Financial Management
SAP Access Control,Financial Management
SAP Access Control,Financial Management
SAP Access Control,Financial Management
SAP Access Control,Financial Management
SAP Access Control,Financial Management
SAP Access Control,Financial Management
SAP Access Control,Financial Management
SAP Crystal Reports,Analytics
SAP Crystal Reports,Analytics
SAP Crystal Reports,Analytics
SAP Crystal Reports,Analytics
SAP Crystal Reports,Analytics
SAP EHS Regulatory Content,Product Lifecycle Management
SAP EHS Regulatory Content,Product Lifecycle Management
SAP EHS Regulatory Content,Product Lifecycle Management
SAP EHS Regulatory Content,Product Lifecycle Management
SAP EHS Regulatory Content,Product Lifecycle Management
SAP EHS Regulatory Content,Product Lifecycle Management
SAP EHS Regulatory Content,Product Lifecycle Management
SAP EHS Regulatory Content,Product Lifecycle Management
SAP EHS Regulatory Content,Product Lifecycle Management
SAP EHS Regulatory Content,Product Lifecycle Management
SAP EHS Regulatory Content,Product Lifecycle Management
SAP EHS Regulatory Content,Product Lifecycle Management
SAP EHS Regulatory Content,Product Lifecycle Management
SAP EHS Regulatory Content,Product Lifecycle Management
SAP EHS Regulatory Content,Product Lifecycle Management
SAP EHS Regulatory Content,Product Lifecycle Management
SAP Intercompany Data Exchange,Product Lifecycle Management
SAP Access Control,Financial Management
SAP Access Control,Financial Management
SAP Access Control,Financial Management
SAP Solution Manager,Technology Platform
SAP Retail Execution,Customer Relationship Management
SAP Retail Execution,Customer Relationship Management
SAP Retail Execution,Customer Relationship Management
SAP Retail Execution,Customer Relationship Management
SAP Retail Execution,Customer Relationship Management
SAP Retail Execution,Customer Relationship Management
SAP Retail Execution,Customer Relationship Management
recycling administration,Product Lifecycle Management
recycling administration,Product Lifecycle Management
recycling administration,Product Lifecycle Management
SAP Access Control,Financial Management
SAP Productivity Pak by ANCILE,Human Capital Management
SAP Productivity Pak by ANCILE,Human Capital Management
SAP Productivity Pak by ANCILE,Human Capital Management
SAP Productivity Pak by ANCILE,Human Capital Management
SAP Auto-ID Infrastructure,Product Lifecycle Management
SAP Advanced Planning and Optimization,Supply Chain Management
SAP Advanced Planning and Optimization,Supply Chain Management
SAP Archiving and Document Access by OpenText,Financial Management
SAP Archiving and Document Access by OpenText,Financial Management
SAP Archiving and Document Access by OpenText,Financial Management
SAP Business One,Enterprise Management
SAP Business One,Enterprise Management
SAP Business One,Enterprise Management
SAP Business One,Enterprise Management
SAP Business One,Enterprise Management
SAP Business One,Enterprise Management
SAP Business One,Enterprise Management
SAP Business One,Enterprise Management
SAP Business One,Enterprise Management
SAP Business One,Enterprise Management
SAP Business One,Enterprise Management
SAP Business One,Enterprise Management
SAP Business One,Enterprise Management
SAP Business One,Enterprise Management
SAP Business One,Enterprise Management
SAP Business One,Enterprise Management
SAP Business One,Enterprise Management
SAP Business One,Enterprise Management
SAP Business One,Enterprise Management
SAP Business One,Enterprise Management
SAP Business One,Enterprise Management
SAP Business One,Enterprise Management
SAP Business One,Enterprise Management
SAP NetWeaver,Technology Platform
SAP NetWeaver,Technology Platform
SAP Business One,Enterprise Management
SAP Business One,Enterprise Management
SAP Business One,Enterprise Management
SAP Business One,Enterprise Management
SAP Business One,Enterprise Management
SAP Business One,Enterprise Management
SAP Business One,Enterprise Management
SAP Business One,Enterprise Management
SAP Business One,Enterprise Management
SAP Business One,Enterprise Management
SAP Business One,Enterprise Management
SAP Business One,Enterprise Management
SAP Business One,Enterprise Management
SAP NetWeaver,Technology Platform
SAP NetWeaver,Technology Platform
SAP NetWeaver,Technology Platform
SAP NetWeaver,Technology Platform
SAP NetWeaver,Technology Platform
composite application for creating project logs,Product Lifecycle Management
SAP Customer Relationship Management,Customer Relationship Management
SAP Customer Relationship Management,Customer Relationship Management
SAP Customer Relationship Management,Customer Relationship Management
SAP Customer Relationship Management,Customer Relationship Management
SAP Customer Relationship Management,Customer Relationship Management
SAP Customer Relationship Management,Customer Relationship Management
SAP Customer Relationship Management,Customer Relationship Management
SAP Customer Relationship Management,Customer Relationship Management
SAP Dairy Management by msg,Product Lifecycle Management
SAP Data Hub,Data Management
SAP Supplier Relationship Management,Supplier Relationship Management
SAP ERP,Enterprise Management
SAP NetWeaver,Technology Platform
SAP NetWeaver,Technology Platform
SAP NetWeaver,Technology Platform
SAP NetWeaver,Technology Platform
SAP ERP,Enterprise Management
SAP Fraud Watch,Financial Management
SAP Access Control,Financial Management
SAP Process Control,Financial Management
SAP Risk Management,Financial Management
SAP Global Trade Services,Financial Management
SAP Global Trade Services,Financial Management
SAP Global Trade Services,Financial Management
SAP Global Trade Services,Financial Management
SAP Global Trade Services,Financial Management
SAP Invoice Management by OpenText,Financial Management
SAP Learning Solution,Human Capital Management
SAP Learning Solution,Human Capital Management
SAP Lumira,Analytics
SAP Lumira,Analytics
SAP Intelligent Asset Management,Supply Chain Management
SAP NetWeaver,Technology Platform
Digital Manufacturing,Digital Manufacturing
Digital Manufacturing,Digital Manufacturing
Digital Manufacturing,Digital Manufacturing
Digital Manufacturing,Digital Manufacturing
Digital Manufacturing,Digital Manufacturing
Digital Manufacturing,Digital Manufacturing
Digital Manufacturing,Digital Manufacturing
Digital Manufacturing,Digital Manufacturing
Digital Manufacturing,Digital Manufacturing
Digital Manufacturing,Digital Manufacturing
Digital Manufacturing,Digital Manufacturing
Digital Manufacturing,Digital Manufacturing
Digital Manufacturing,Digital Manufacturing
Digital Manufacturing,Digital Manufacturing
Digital Manufacturing,Digital Manufacturing
Digital Manufacturing,Digital Manufacturing
Digital Manufacturing,Digital Manufacturing
SAP Mobile Platform,Technology Platform
SAP Mobile Platform,Technology Platform
SAP NetWeaver,Technology Platform
SAP NetWeaver,Technology Platform
SAP Electronic Invoicing for Brazil,Financial Management
Digital Manufacturing,Digital Manufacturing
Digital Manufacturing,Digital Manufacturing
Digital Manufacturing,Digital Manufacturing
Digital Manufacturing,Digital Manufacturing
Digital Manufacturing,Digital Manufacturing
SAP Productivity Composer by ANCILE,Human Capital Management
SAP Productivity Pak by ANCILE,Human Capital Management
SAP R/3,Enterprise Management
SAP R/3,Enterprise Management
SAP R/3,Enterprise Management
SAP R/3,Enterprise Management
SAP R/3,Enterprise Management
SAP R/3,Enterprise Management
SAP R/3,Enterprise Management
SAP Replication Server,Data Management
SAP Risk Management,Financial Management
SAP Sailing Analytics,Analytics
SAP Supply Chain Management,Supply Chain Management
SAP Supply Chain Management,Supply Chain Management
SAP Supply Chain Management,Supply Chain Management
SAP Supply Chain Management,Supply Chain Management
SAP Strategic Enterprise Management,Financial Management
SAP Strategic Enterprise Management,Financial Management
SAP Strategic Enterprise Management,Financial Management
SAP Solution Manager,Technology Platform
SAP Solution Manager,Technology Platform
SAP Solution Manager,Technology Platform
SAP Solution Manager,Technology Platform
SAP Solution Manager,Technology Platform
SAP Sourcing and SAP Contract Lifecycle Management,Supplier Relationship Management
SAP Sourcing and SAP Contract Lifecycle Management,Supplier Relationship Management
SAP Sourcing and SAP Contract Lifecycle Management,Supplier Relationship Management
SAP Supplier Relationship Management,Supplier Relationship Management
SAP Supplier Relationship Management,Supplier Relationship Management
SAP Supplier Relationship Management,Supplier Relationship Management
SAP Supplier Relationship Management,Supplier Relationship Management
SAP Supplier Relationship Management,Supplier Relationship Management
SAP Supplier Lifecycle Management,Supplier Relationship Management
SAP Test Acceleration and Optimization,Technology Platform
SAP Test Acceleration and Optimization,Technology Platform
SAP Test Data Migration Server,Data Management
SAP BusinessObjects geocoding,Data Management
SAP Transportation Management,Supply Chain Management
SAP Vora,Data Management
SAP Vora,Data Management
SAP NetWeaver,Technology Platform
SAP NetWeaver,Technology Platform
SAP NetWeaver,Technology Platform
SAP Workforce Scheduling and Optimization by ClickSoftware,Human Capital Management
SAP Workforce Scheduling and Optimization by ClickSoftware,Human Capital Management
Digital Manufacturing,Digital Manufacturing
Digital Manufacturing,Digital Manufacturing
SAP Mobile Sales,Customer Relationship Management
SAP Analysis for Microsoft Office,Analytics
SAP Analysis for Microsoft Office,Analytics
SAP Analysis for Microsoft Office,Analytics
SAP Analysis for Microsoft Office,Analytics
SAP Analysis for Microsoft Office,Analytics
SAP Analysis for Microsoft Office,Analytics
SAP Lumira,Analytics
SAP Lumira,Analytics
SAP Lumira,Analytics
SAP Lumira,Analytics
SAP Lumira,Analytics
SAP Advantage Database Server,Data Management
SAP Advantage Database Server,Data Management
Bradmark Surveillance,Data Management
Bradmark Surveillance,Data Management
SAP Event Stream Processor,Data Management
FUZZY! DataCare Tools,Data Management
SAP Adaptive Server Enterprise,Data Management
SAP PowerBuilder,Data Management
SAP Sybase RAP,Data Management
SAP Replication Server,Data Management
SAP SQL Anywhere,Data Management
SAP SQL Anywhere,Data Management
SAP SQL Anywhere,Data Management
SAP Advantage Database Server,Data Management
SAP Afaria,Technology Platform
SAP IQ,Data Management
Sybase Mobile Sales for SAP CRM,Customer Relationship Management
SAP PowerDesigner,Data Management
SAP PowerBuilder,Data Management
SAP PowerDesigner,Data Management
SAP PowerDesigner,Data Management
SAP SQL Anywhere,Data Management
SAP SQL Anywhere,Data Management
SAP Mobile Platform,Technology Platform
SAP Mobile Platform,Technology Platform
SAP Mobile Platform,Technology Platform
SAP Mobile Platform,Technology Platform
SAP Mobile Platform,Technology Platform
SAP Mobile Platform,Technology Platform
,
SAP Enterprise Asset Management,Enterprise Management
SAP Yard Logistics,Supply Chain Management
SAP Commerce Cloud,Customer Relationship Management
SAP Commerce Cloud,Customer Relationship Management
SAP Cloud Applications Studio,Technology Platform
Digital Manufacturing,Digital Manufacturing
Digital Manufacturing,Digital Manufacturing
Digital Manufacturing,Digital Manufacturing
Digital Manufacturing,Digital Manufacturing
Digital Manufacturing,Digital Manufacturing
Digital Manufacturing,Digital Manufacturing
Digital Manufacturing,Digital Manufacturing
Digital Manufacturing,Digital Manufacturing
SAP Extended Warehouse Management,Supply Chain Management
SAP Data Services,Data Management
SAP Data Services,Data Management
SAP Data Services,Data Management
SAP BusinessObjects Business Intelligence,Analytics
,
SAP Replication Server,Data Management
SAP Collections Insight,Financial Management
SAP Data Services,Data Management
SAP Data Quality Management,Data Management
SAP Information Steward,Data Management
SAP BusinessObjects Business Intelligence,Analytics
SAP Data Services,Data Management
SAP Data Quality Management,Data Management
SAP Information Steward,Data Management
SAP Advanced Planning and Optimization,Supply Chain Management
SAP Advanced Planning and Optimization,Supply Chain Management
assessorial charge management,Financial Management
asset accounting multiple calendar tool,Financial Management
asset management for oil and gas,Financial Management
SAP Supply Chain Management,Supply Chain Management
automated store allocation,Supply Chain Management
automated store allocation,Supply Chain Management
SAP Bank Communication Management,Financial Management
budget-based benefits selection,Human Capital Management
budget-based benefits selection,Human Capital Management
capital investment planning,Financial Management
card management,Financial Management
SAP ERP,Enterprise Management
citizen registration,Customer Relationship Management
Digital Manufacturing,Digital Manufacturing
SAP Multi-Bank Connectivity,Financial Management
corporate payment connector,Financial Management
SAP Sales Cloud,Customer Relationship Management
SAP Transportation Management,Supply Chain Management
SAP Mobile Asset Management,Financial Management
SAP Intercompany Data Exchange,Product Lifecycle Management
SAP Dealer Business Management,Customer Relationship Management
SAP Disclosure Management,Financial Management
SAP Demand Signal Management,Supply Chain Management
SAP Engineering Control Center,Product Lifecycle Management
SAP ERP,Enterprise Management
SAP EHS Regulatory Content,Product Lifecycle Management
SAP EHS Regulatory Content,Product Lifecycle Management
SAP EHS Regulatory Content,Product Lifecycle Management
electronic ledger management,Financial Management
German gas solution,Product Lifecycle Management
enhanced security issuance management,Financial Management
SAP Entitlement Management,Enterprise Management
SAP Entitlement Management,Enterprise Management
SAP Extended Warehouse Management,Supply Chain Management
SAP Cloud for Customer,Customer Relationship Management
SAP Cloud for Customer,Customer Relationship Management
SAP Vehicles Network,Supplier Relationship Management
heavy equipment management,Product Lifecycle Management
,
,
SAP Cloud for Customer,Customer Relationship Management
SAP Cloud for Customer,Customer Relationship Management
heavy equipment management,Product Lifecycle Management
SAP Lessee Contract Management,Financial Management
field masking,Technology Platform
field masking,Technology Platform
field masking,Technology Platform
field masking,Technology Platform
financial foundation,Financial Management
SAP Global Trade Services,Financial Management
SAP HANA,Technology Platform
SAP Transportation Management,Supply Chain Management
SAP Commerce,Customer Relationship Management
SAP Intercompany Data Exchange,Product Lifecycle Management
SAP Intercompany Data Exchange,Product Lifecycle Management
SAP ERP,Enterprise Management
SAP Commerce,Customer Relationship Management
SAP Information Collaboration Hub,Content and Collaboration
SAP NetWeaver,Technology Platform
SAP Gateway,Technology Platform
SAP NetWeaver,Technology Platform
SAP NetWeaver,Technology Platform
SAP NetWeaver,Technology Platform
SAP NetWeaver,Technology Platform
market process management for utilities,Data Management
SAP Cloud Platform,Technology Platform
SAP Market Communication for Utilities,Supply Chain Management
SAP Asset Manager,Enterprise Management
SAP Authenticator,Technology Platform
SAP Complex Manufacturing Accelerator,Product Lifecycle Management
SAP Complex Manufacturing Accelerator,Product Lifecycle Management
SAP Business Banking,Financial Management
SAP Business Banking,Financial Management
SAP Business Banking,Financial Management
SAP Fieldglass Manager Hub,Human Capital Management
SAP Fieldglass Time Entry,Human Capital Management
SAP Analytics Cloud,Analytics
SAP Health,Customer Relationship Management
,
SAP Fiori,Technology Platform
,
SAP Player Fitness,Human Capital Management
SAP Rural Sourcing Management,Supplier Relationship Management
SAP Rural Sourcing Management,Supplier Relationship Management
SAP Rural Sourcing Management,Supplier Relationship Management
SAP Mobile Cards,Content and Collaboration
SAP Mobile Cards,Content and Collaboration
SAP Sports One,Analytics
meter operation service billing,Customer Relationship Management
online application submission management,Customer Relationship Management
online application submission management,Customer Relationship Management
order engineering workbench,Product Lifecycle Management
SAP NetWeaver,Technology Platform
pre-determined pricing engine,Customer Relationship Management
prepayment for utilities,Customer Relationship Management
SAP Process Objects Builder,Data Management
process and data-exchange framework for utilities,Product Lifecycle Management
overtake and undertake quantities billing for German energy utilities,Product Lifecycle Management
real estate development lifecycle management,Financial Management
regulatory reporting for SAP object event repository,Product Lifecycle Management
SAP S/4HANA,Enterprise Management
SAP S/4HANA,Enterprise Management
,
"SAP Environment, Health, and Safety Management",Product Lifecycle Management
intercompany data exchange,Supplier Relationship Management
SAP S/4HANA,Enterprise Management
SAP S/4HANA,Enterprise Management
SAP S/4HANA,Enterprise Management
SAP S/4HANA,Enterprise Management
SAP S/4HANA,Enterprise Management
SAP Transportation Management,Supply Chain Management
SAP Transportation Management,Supply Chain Management
SAP Transportation Management,Supply Chain Management
SAP Transportation Management,Supply Chain Management
SAP Transportation Management,Supply Chain Management
SAP Transportation Management,Supply Chain Management
SAP assurance and compliance software,Financial Management
SAP Agricultural Contract Management,Supply Chain Management
SAP Agricultural Contract Management,Supply Chain Management
SAP Agricultural Contract Management,Supply Chain Management
SAP Apparel and Footwear,Product Lifecycle Management
SAP assurance and compliance software,Financial Management
SAP Business One,Enterprise Management
SAP Big Data Margin Assurance,Analytics
SAP Build,Technology Platform
SAP Bulk Fuel Management,Supply Chain Management
SAP Bulk Fuel Management,Supply Chain Management
SAP Business One,Enterprise Management
SAP Cloud for Customer,Customer Relationship Management
SAP ERP,Enterprise Management
SAP Commerce Cloud,Customer Relationship Management
SAP Complex Assembly Manufacturing,Product Lifecycle Management
SAP Consolidated Payables Link for U.S. Bank,Financial Management
SAP CoPilot,Technology Platform
SAP Corporate Connectivity for Banking for Westpac,Financial Management
SAP Cloud Platform,Technology Platform
SAP Cross Channel Order Management for Retail,Customer Relationship Management
SAP Cross Channel Order Management for Retail,Customer Relationship Management
SAP Customer Relationship Management,Customer Relationship Management
SAP Deduction Management Component,Financial Management
SAP Edge Services,Technology Platform
SAP EEG Billing for German Energy Feed,Product Lifecycle Management
SAP Energy Portfolio Management,Product Lifecycle Management
SAP Enterprise Learning,Human Capital Management
SAP Enterprise Learning,Human Capital Management
SAP ERP,Enterprise Management
SAP ERP,Enterprise Management
SAP ERP,Enterprise Management
SAP ERP,Enterprise Management
SAP ERP,Enterprise Management
SAP Extended Warehouse Management,Supply Chain Management
SAP Fiori,Technology Platform
SAP Fiori,Technology Platform
SAP Fiori,Technology Platform
SAP Fiori,Technology Platform
SAP Fiori,Technology Platform
SAP Forecasting and Replenishment,Supply Chain Management
SAP Intercompany Data Exchange,Product Lifecycle Management
heavy equipment management,Product Lifecycle Management
SAP Sales Cloud,Customer Relationship Management
SAP Sales Cloud,Customer Relationship Management
SAP Integrated Business Planning,Supply Chain Management
SAP Integrated Business Planning,Supply Chain Management
SAP Integrated Business Planning,Supply Chain Management
SAP Integrated Business Planning,Supply Chain Management
SAP Intercompany Data Exchange,Product Lifecycle Management
SAP Intercompany Data Exchange,Product Lifecycle Management
,
SAP Intercompany Data Exchange,Product Lifecycle Management
SAP Intercompany Data Exchange,Product Lifecycle Management
SAP Intercompany Data Exchange,Product Lifecycle Management
SAP Intercompany Data Exchange,Product Lifecycle Management
SAP Intercompany Data Exchange,Product Lifecycle Management
SAP Intelligent Metering for German Energy Utilities,Product Lifecycle Management
SAP Intelligent Metering for German Energy Utilities,Product Lifecycle Management
SAP Media Sales and Advertising,Product Lifecycle Management
SAP Jam,Content and Collaboration
SAP Lease Administration by Nakisa,Financial Management
SAP Leonardo,Technology Platform
SAP Military Data Exchange,Product Lifecycle Management
SAP Meat and Fish Management by msg,Product Lifecycle Management
SAP Heath,Analytics
SAP Marketing Cloud,Customer Relationship Management
SAP Mobile Platform,Technology Platform
SAP Cloud Platform,Technology Platform
SAP Multiresource Scheduling,Product Lifecycle Management
order engineering workbench,Product Lifecycle Management
SAP Health,Customer Relationship Management
SAP Health,Customer Relationship Management
SAP Sales Cloud,Customer Relationship Management
,
SAP Railcar Management Component,Supply Chain Management
SAP Railcar Management Component,Supply Chain Management
SAP Railcar Management Component,Supply Chain Management
SAP Railcar Management Component,Supply Chain Management
SAP Railcar Management Component,Supply Chain Management
SAP Railcar Management Component,Supply Chain Management
SAP Railcar Management Component,Supply Chain Management
SAP Railcar Management Component,Supply Chain Management
SAP Railcar Management Component,Supply Chain Management
SAP Railcar Management Component,Supply Chain Management
SAP Roambi,Analytics
SAP Commodity Management,Financial Management
SAP Commodity Management,Financial Management
SAP Engineering Control Center,Product Lifecycle Management
SAP Extended Warehouse Management,Supply Chain Management
SAP S/4HANA,Enterprise Management
market process management for utilities,Data Management
SAP S/4HANA,Enterprise Management
SAP S/4HANA,Enterprise Management
SAP Sales Insights for Retail,Customer Relationship Management
SAP Allocation and Rescheduling Optimization,Product Lifecycle Management
SAP Tax Classification and Reporting,Financial Management
SAP Transportation Management,Supply Chain Management
SAP Upstream Operations Management,Supplier Relationship Management
SAP Direct Store Delivery,Supply Chain Management
SAP Transportation Management,Supply Chain Management
SAP Transportation Management,Supply Chain Management
SAP Transportation Management,Supply Chain Management
SAP Knowledge Acceleration,Human Capital Management
SAP Sustainability Performance Management,Financial Management
SAP Localization Hub,Content and Collaboration
SAP Supplier Relationship Management,Supplier Relationship Management
SAP ERP,Enterprise Management
stock balancing management,Customer Relationship Management
store clustering,Customer Relationship Management
service taxation enhancements for Brazil,Financial Management
traffic congestion management,Analytics
intelligent traffic management,Data Management
SAP Intelligent Asset Management,Supply Chain Management
SAP Intelligent Asset Management,Supply Chain Management
SAP Work Efficiency Component,Product Lifecycle Management
SAP BusinessObjects Business Intelligence,Analytics
Ariba Cloud Integration,Supplier Relationship Management
SAP Big Data Margin Assurance,Analytics
SAP Entitlement Management,Enterprise Management
SAP Entitlement Management,Enterprise Management
SAP Cloud for Customer,Customer Relationship Management
SAP Cloud for Customer,Customer Relationship Management
SAP Fieldglass Manager Hub,Human Capital Management
accelerated application delivery,Technology Platform
SAP NetWeaver,Technology Platform
SAP NetWeaver,Technology Platform
SAP Account Substantiation and Automation by BlackLine,Financial Management
SAP Account Substantiation and Automation by BlackLine,Financial Management
SAP Account Substantiation and Automation by BlackLine,Financial Management
SAP Account Substantiation and Automation by BlackLine,Financial Management
SAP Account Substantiation and Automation by BlackLine,Financial Management
SAP NetWeaver,Technology Platform
SAP NetWeaver,Technology Platform
Adobe Marketing Solutions from SAP,Customer Relationship Management
SAP Tax Intelligence and Management by All Tax,Financial Management
SAP Tax Intelligence and Management by All Tax,Financial Management
SAP Analysis for Microsoft Office,Analytics
SAP Analysis for Microsoft Office,Analytics
SAP Advanced Planning and Optimization,Supply Chain Management
SAP Advanced Planning and Optimization,Supply Chain Management
SAP Advanced Planning and Optimization,Supply Chain Management
SAP NetWeaver,Technology Platform
SAP NetWeaver,Technology Platform
SAP Application Interface Framework,Technology Platform
SAP Application Interface Framework,Technology Platform
SAP Application Interface Framework,Technology Platform
SAP Application Interface Framework,Technology Platform
SAP Application Interface Framework,Technology Platform
SAP Ariba Cloud Integration Gateway,Technology Platform
SAP Ariba Cloud Integration Gateway,Technology Platform
SAP Ariba Cloud Integration Gateway,Technology Platform
Ariba Network,Supplier Relationship Management
SAP NetWeaver,Technology Platform
SAP NetWeaver,Technology Platform
SAP NetWeaver,Technology Platform
SAP Business One,Enterprise Management
SAP Business One,Enterprise Management
SAP Business One,Enterprise Management
SAP Business One,Enterprise Management
SAP Business One,Enterprise Management
banking services from SAP,Financial Management
banking services from SAP,Financial Management
banking services from SAP,Financial Management
banking services from SAP,Financial Management
SAP BusinessObjects Business Intelligence,Analytics
SAP Customer Activity Repository,Customer Relationship Management
SAP Customer Activity Repository,Customer Relationship Management
SAP Data Encryption by CipherCloud,Data Management
SAP Process Mining by Celonis,Product Lifecycle Management
SAP Capital Markets Trading by Calypso,Customer Relationship Management
SAP Capital Markets Treasury by Calypso,Customer Relationship Management
SAP Customer Relationship Management,Customer Relationship Management
SAP Customer Relationship Management,Customer Relationship Management
SAP Real Estate Management,Financial Management
SAP Crystal Server,Analytics
SAP Crystal Reports,Analytics
SAP Crystal Reports,Analytics
SAP Crystal Reports,Analytics
SAP Crystal Reports,Analytics
SAP Crystal Reports,Analytics
SAP NetWeaver,Technology Platform
SAP Demand Signal Management,Supply Chain Management
SAP Demand Signal Management,Supply Chain Management
SAP Demand Signal Management,Supply Chain Management
SAP Digital Content Processing by OpenText,Content and Collaboration
SAP Landscape Transformation,Data Management
SAP Signature Management by DocuSign,Customer Relationship Management
SAP Signature Management by DocuSign,Customer Relationship Management
SAP Fashion Management,Product Lifecycle Management
SAP Engineering Control Center,Product Lifecycle Management
SAP Engineering Control Center,Product Lifecycle Management
SAP Engineering Control Center,Product Lifecycle Management
SAP Engineering Control Center,Product Lifecycle Management
SAP Engineering Control Center,Product Lifecycle Management
SAP Engineering Control Center,Product Lifecycle Management
SAP Engineering Control Center,Product Lifecycle Management
SAP Engineering Control Center,Product Lifecycle Management
SAP Engineering Control Center,Product Lifecycle Management
SAP Engineering Control Center,Product Lifecycle Management
SAP Engineering Control Center,Product Lifecycle Management
SAP Engineering Control Center,Product Lifecycle Management
SAP Extended Enterprise Content Management by OpenText,Content and Collaboration
SAP Extended Enterprise Content Management by OpenText,Content and Collaboration
SAP Customer Relationship Management,Customer Relationship Management
SAP Event Management,Supply Chain Management
SAP Extended Warehouse Management,Supply Chain Management
SAP Supply Chain Management,Supply Chain Management
SAP Supply Network Collaboration,Supply Chain Management
SAP Supplier Relationship Management,Supplier Relationship Management
SAP Customer Relationship Management,Customer Relationship Management
SAP Customer Relationship Management,Customer Relationship Management
SAP ERP,Enterprise Management
SAP Extended Warehouse Management,Supply Chain Management
SAP Financial Supply Chain Management,Supply Chain Management
SAP Learning Solution,Human Capital Management
SAP Supply Chain Management,Supply Chain Management
SAP Supply Chain Management,Supply Chain Management
SAP Strategic Enterprise Management,Financial Management
SAP Supply Network Collaboration,Supply Chain Management
SAP Supplier Relationship Management,Supplier Relationship Management
SAP Customer Relationship Management,Customer Relationship Management
SAP E-Recruiting,Human Capital Management
SAP ERP,Enterprise Management
SAP Financial Supply Chain Management,Supply Chain Management
SAP Learning Solution,Human Capital Management
SAP Supply Chain Management,Supply Chain Management
SAP Strategic Enterprise Management,Financial Management
SAP Supplier Relationship Management,Supplier Relationship Management
SAP Customer Relationship Management,Customer Relationship Management
SAP E-Recruiting,Human Capital Management
SAP ERP,Enterprise Management
SAP ERP,Enterprise Management
SAP Financial Supply Chain Management,Supply Chain Management
SAP Learning Solution,Human Capital Management
SAP Supply Chain Management,Supply Chain Management
SAP Strategic Enterprise Management,Financial Management
SAP Supply Network Collaboration,Supply Chain Management
SAP Supplier Relationship Management,Supplier Relationship Management
SAP E-Recruiting,Human Capital Management
SAP ERP,Enterprise Management
SAP Financial Supply Chain Management,Supply Chain Management
SAP Learning Solution,Human Capital Management
SAP Strategic Enterprise Management,Financial Management
SAP E-Recruiting,Human Capital Management
SAP ERP,Enterprise Management
SAP ERP,Enterprise Management
SAP Financial Supply Chain Management,Supply Chain Management
SAP Learning Solution,Human Capital Management
SAP Strategic Enterprise Management,Financial Management
SAP E-Recruiting,Human Capital Management
SAP ERP,Enterprise Management
SAP Financial Supply Chain Management,Supply Chain Management
SAP Learning Solution,Human Capital Management
SAP Strategic Enterprise Management,Financial Management
SAP E-Recruiting,Human Capital Management
SAP ERP,Enterprise Management
SAP Financial Supply Chain Management,Supply Chain Management
SAP Learning Solution,Human Capital Management
SAP Strategic Enterprise Management,Financial Management
SAP Time and Attendance Management by WorkForce Software,Human Capital Management
SAP Enterprise Threat Detection,Technology Platform
SAP Enterprise Threat Detection,Technology Platform
SAP ERP,Enterprise Management
SAP ERP,Enterprise Management
SAP ERP,Enterprise Management
SAP NetWeaver,Technology Platform
SAP Fashion Management,Product Lifecycle Management
SAP Fiori,Technology Platform
SAP Fiori,Technology Platform
SAP Fiori,Technology Platform
SAP Fiori,Technology Platform
SAP Fiori,Technology Platform
SAP Fiori,Technology Platform
SAP Solution Manager,Technology Platform
SAP Solution Manager,Technology Platform
SAP NetWeaver,Technology Platform
SAP Global Trade Services,Financial Management
HR renewal,Human Capital Management
HR renewal,Human Capital Management
SAP Commerce,Customer Relationship Management
SAP Commerce,Customer Relationship Management
SAP Commerce,Customer Relationship Management
SAP Commerce,Customer Relationship Management
SAP Commerce,Customer Relationship Management
SAP Service Cloud,Customer Relationship Management
SAP Service Cloud,Customer Relationship Management
SAP Business One,Enterprise Management
SAP Intercompany Financial Hub by BlackLine,Financial Management
SAP ERP,Enterprise Management
SAP Knowledge Acceleration,Human Capital Management
SAP Knowledge Acceleration,Human Capital Management
SAP Knowledge Acceleration,Human Capital Management
SAP Knowledge Acceleration,Human Capital Management
SAP Knowledge Acceleration,Human Capital Management
SAP Cloud Platform,Technology Platform
SAP Cloud Platform,Technology Platform
mobile development kit extension for Visual Studio Code,Technology Platform
SAP Asset Manager,Enterprise Management
SAP Asset Manager,Enterprise Management
SAP Asset Manager,Enterprise Management
SAP Asset Manager,Enterprise Management
SAP Asset Manager,Enterprise Management
SAP Asset Manager,Enterprise Management
SAP Authenticator,Technology Platform
SAP Cart Approval,Supplier Relationship Management
SAP Marketing Cloud,Customer Relationship Management
SAP CRM Service Manager,Customer Relationship Management
SAP CRM Service Manager,Customer Relationship Management
SAP CRM Service Manager,Customer Relationship Management
SAP Direct Store Delivery,Supply Chain Management
SAP Direct Store Delivery,Supply Chain Management
SAP Direct Store Delivery,Supply Chain Management
SAP Direct Store Delivery,Supply Chain Management
SAP Direct Store Delivery,Supply Chain Management
SAP HR Approvals,Human Capital Management
SAP Inventory Manager,Supply Chain Management
SAP Leave Request,Human Capital Management
SAP Health,Customer Relationship Management
SAP Retail Execution,Customer Relationship Management
SAP Retail Execution,Customer Relationship Management
SAP Retail Execution,Customer Relationship Management
SAP Retail Execution,Customer Relationship Management
SAP Rural Sourcing Management,Supplier Relationship Management
SAP Fiori,Technology Platform
SAP Fiori,Technology Platform
SAP Fiori,Technology Platform
SAP Fiori,Technology Platform
SAP Fiori,Technology Platform
SAP Fiori,Technology Platform
SAP Fiori,Technology Platform
SAP Fiori,Technology Platform
SAP Fiori,Technology Platform
SAP Jam,Content and Collaboration
SAP Jam,Content and Collaboration
SAP Fiori,Technology Platform
SAP BusinessObjects Business Intelligence,Analytics
SAP BusinessObjects Business Intelligence,Analytics
SAP BusinessObjects Business Intelligence,Analytics
SAP BusinessObjects Business Intelligence,Analytics
SAP Work Manager,Enterprise Management
SAP Work Manager,Enterprise Management
SAP Work Manager,Enterprise Management
SAP Work Manager,Enterprise Management
SAP Work Manager,Enterprise Management
SAP Work Manager,Enterprise Management
SAP Customer Relationship Management,Customer Relationship Management
SAP ERP,Enterprise Management
SAP ERP,Enterprise Management
SAP S/4HANA,Enterprise Management
SAP Mobile App Protection by Mocana,Technology Platform
SAP Content Management for Microsoft SharePoint by OpenText,Content and Collaboration
SAP Content Management for Microsoft SharePoint by OpenText,Content and Collaboration
SAP Content Management for Microsoft SharePoint by OpenText,Content and Collaboration
manager self-services add-on,Human Capital Management
SAP Multichannel Foundation for Utilities and Public Sector,Customer Relationship Management
SAP NetWeaver,Technology Platform
SAP NetWeaver,Technology Platform
SAP Operational Process Intelligence,Technology Platform
SAP Customer Data Cloud,Customer Relationship Management
SAP Customer Data Cloud,Customer Relationship Management
SAP Customer Data Cloud,Customer Relationship Management
SAP NetWeaver,Technology Platform
SAP NetWeaver,Technology Platform
SAP NetWeaver,Technology Platform
SAP Product Lifecycle Management,Product Lifecycle Management
SAP PLM interface,Product Lifecycle Management
SAP PLM interface,Product Lifecycle Management
SAP PLM interface,Product Lifecycle Management
SAP NetWeaver,Technology Platform
SAP NetWeaver,Technology Platform
SAP NetWeaver,Technology Platform
SAP BusinessObjects Dashboards,Analytics
SAP Pricing and Costing for Utilities,Customer Relationship Management
SAP Product Lifecycle Management,Product Lifecycle Management
SAP Process Objects Builder,Data Management
SAP Product Lifecycle Management for Insurance,Product Lifecycle Management
SAP Product Lifecycle Management for Insurance,Product Lifecycle Management
SAP Product Lifecycle Management for Insurance,Product Lifecycle Management
SAP Profitability and Performance Management,Financial Management
SAP Profitability and Performance Management,Financial Management
SAP Profitability and Performance Management,Financial Management
SAP Quotation and Underwriting for Insurance,Enterprise Management
SAP Quotation and Underwriting for Insurance,Enterprise Management
recycling administration,Product Lifecycle Management
Regulatory Reporting by iBS,Product Lifecycle Management
SAP On-Shelf Availability,Supply Chain Management
SAP Productivity Pak by ANCILE,Human Capital Management
SAP Archiving and Document Access by OpenText,Financial Management
SAP Archiving and Document Access by OpenText,Financial Management
SAP Archiving and Document Access by OpenText,Financial Management
SAP Digital Content Processing by OpenText,Content and Collaboration
SAP Digital Content Processing by OpenText,Content and Collaboration
SAP Digital Content Processing by OpenText,Content and Collaboration
SAP Document Presentment by OpenText,Content and Collaboration
SAP Document Presentment by OpenText,Content and Collaboration
SAP Document Presentment by OpenText,Content and Collaboration
SAP Document Presentment by OpenText,Content and Collaboration
SAP Document Presentment by OpenText,Content and Collaboration
SAP Document Presentment by OpenText,Content and Collaboration
SAP Document Presentment by OpenText,Content and Collaboration
SAP Document Presentment by OpenText,Content and Collaboration
SAP Document Presentment by OpenText,Content and Collaboration
SAP Document Presentment by OpenText,Content and Collaboration
SAP Extended Enterprise Content Management by OpenText,Content and Collaboration
SAP Extended Enterprise Content Management by OpenText,Content and Collaboration
SAP Extended Enterprise Content Management by OpenText,Content and Collaboration
SAP S/4HANA,Enterprise Management
SAP Invoice Management by OpenText,Financial Management
SAP Invoice Management by OpenText,Financial Management
SAP Enterprise Asset Management,Enterprise Management
SAP Enterprise Asset Management,Enterprise Management
SAP Enterprise Asset Management,Enterprise Management
SAP S/4HANA,Enterprise Management
SAP S/4HANA,Enterprise Management
SAP S/4HANA,Enterprise Management
SAP Farm Management by Vistex,Supply Chain Management
SAP Farm Management by Vistex,Supply Chain Management
SAP Farm Management by Vistex,Supply Chain Management
SAP Grower Management for Perishables by Vistex,Supply Chain Management
SAP Grower Management for Perishables by Vistex,Supply Chain Management
SAP Grower Management for Perishables by Vistex,Supply Chain Management
SAP S/4HANA,Enterprise Management
SAP S/4HANA,Enterprise Management
SAP S/4HANA,Enterprise Management
SAP S/4HANA,Enterprise Management
SAP Data Maintenance by Vistex,Data Management
SAP Data Maintenance by Vistex,Data Management
SAP Data Maintenance by Vistex,Data Management
SAP S/4HANA Utilities,Enterprise Management
SAP S/4HANA,Enterprise Management
SAP Incentive Administration by Vistex and SAP Paybacks and Chargebacks by Vistex for SAP S/4HANA,Financial Management
SAP Incentive Administration by Vistex and SAP Paybacks and Chargebacks by Vistex for SAP S/4HANA,Financial Management
SAP Incentive Administration by Vistex and SAP Paybacks and Chargebacks by Vistex for SAP S/4HANA,Financial Management
SAP Solutions Sales Configuration,Customer Relationship Management
SAP Master Data Governance,Data Management
SAP Master Data Governance,Data Management
SAP Master Data Governance,Data Management
SAP Master Data Governance,Data Management
SAP Master Data Governance,Data Management
SAP Master Data Governance,Data Management
SAP Yard Logistics,Supply Chain Management
SAP S/4HANA,Enterprise Management
SAP S/4HANA,Enterprise Management
SAP Master Data Governance,Data Management
SAP Asset Information Workbench by Utopia,Enterprise Management
SAP Asset Information Workbench by Utopia,Enterprise Management
SAP Asset Information Workbench by Utopia,Enterprise Management
SAP Asset Information Workbench by Utopia,Enterprise Management
SAP Access Control,Financial Management
SAP Access Control,Financial Management
SAP Access Control,Financial Management
SAP Access Control,Financial Management
SAP Access Control,Financial Management
SAP Archiving and Document Access by OpenText,Financial Management
SAP Archiving and Document Access by OpenText,Financial Management
SAP Archiving and Document Access by OpenText,Financial Management
SAP Archiving and Document Access by OpenText,Financial Management
SAP Archiving and Document Access by OpenText,Financial Management
SAP Solution Manager,Technology Platform
SAP Add-On Assembly Kit,Technology Platform
SAP Application Visualization by iRise,Technology Platform
SAP Application Visualization by iRise,Technology Platform
SAP address directories,Data Management
SAP address directories,Data Management
SAP address directories,Data Management
SAP address directories,Data Management
SAP address directories,Data Management
SAP address directories,Data Management
SAP address directories,Data Management
SAP address directories,Data Management
SAP address directories,Data Management
SAP address directories,Data Management
SAP address directories,Data Management
SAP address directories,Data Management
SAP address directories,Data Management
SAP address directories,Data Management
SAP address directories,Data Management
SAP address directories,Data Management
SAP address directories,Data Management
SAP address directories,Data Management
SAP address directories,Data Management
SAP address directories,Data Management
SAP address directories,Data Management
SAP address directories,Data Management
SAP address directories,Data Management
SAP address directories,Data Management
SAP address directories,Data Management
SAP address directories,Data Management
SAP address directories,Data Management
SAP address directories,Data Management
SAP address directories,Data Management
SAP address directories,Data Management
SAP address directories,Data Management
SAP address directories,Data Management
SAP address directories,Data Management
SAP address directories,Data Management
SAP address directories,Data Management
SAP address directories,Data Management
SAP Advanced Data Migration by Syniti,Technology Platform
SAP Advanced Data Migration by Syniti,Technology Platform
SAP Advanced Data Migration by Syniti,Technology Platform
SAP Advantage Database Server,Data Management
SAP Advanced Track and Trace for Pharmaceuticals,Supply Chain Management
SAP Advanced Track and Trace for Pharmaceuticals,Supply Chain Management
SAP Agile Data Preparation,Data Management
SAP Auto-ID Infrastructure,Product Lifecycle Management
SAP Smart Business,Technology Platform
SAP Smart Business,Technology Platform
SAP Analytics Hub,Analytics
SAP API Management,Technology Platform
SAP Supply Chain Info Center,Supply Chain Management
SAP Advanced Planning and Optimization,Supply Chain Management
SAP Application Visualization by iRise,Technology Platform
SAP Apparel and Footwear,Product Lifecycle Management
SAP Apparel and Footwear,Product Lifecycle Management
SAP Apparel and Footwear,Product Lifecycle Management
SAP Apparel and Footwear,Product Lifecycle Management
SAP Apparel and Footwear,Product Lifecycle Management
SAP Apparel and Footwear,Product Lifecycle Management
SAP Adaptive Server Enterprise,Data Management
SAP Adaptive Server Enterprise,Data Management
SAP Adaptive Server Enterprise,Data Management
SAP Assessment Management by Questionmark,Human Capital Management
SAP Assessment Management by Questionmark,Human Capital Management
SAP Asset Lifecycle Accounting,Financial Management
SAP Asset Manager,Enterprise Management
SAP Asset Manager,Enterprise Management
SAP Asset Manager,Enterprise Management
SAP Asset Manager,Enterprise Management
SAP Asset Retirement Obligation Management,Financial Management
SAP Business One,Enterprise Management
SAP Business One,Enterprise Management
SAP Business One,Enterprise Management
SAP Business One,Enterprise Management
SAP Business One,Enterprise Management
SAP Business One,Enterprise Management
SAP BW/4HANA,Data Management
SAP BW/4HANA,Data Management
SAP NetWeaver,Technology Platform
SAP Spend Performance Management,Financial Management
SAP Business Process Automation by Redwood,Technology Platform
SAP Business Process Automation by Redwood,Technology Platform
SAP Business Planning and Consolidation,Financial Management
SAP Business Planning and Consolidation,Financial Management
SAP Budgeting and Planning for Public Sector,Financial Management
SAP Business Process Tracking for Utilities,Supply Chain Management
SAP NetWeaver,Technology Platform
SAP Business One,Enterprise Management
SAP Business One,Enterprise Management
SAP Business One,Enterprise Management
SAP NetWeaver,Technology Platform
SAP BW/4HANA,Data Management
SAP BW/4HANA,Data Management
SAP Common Area Maintenance Expense Recovery,Financial Management
SAP Customer Activity Repository,Customer Relationship Management
SAP Commerce Cloud,Customer Relationship Management
SAP Commerce Cloud,Customer Relationship Management
SAP Cloud Applications Studio,Technology Platform
SAP Cloud Platform,Technology Platform
SAP Cloud Platform,Technology Platform
SAP Cloud Platform,Technology Platform
SAP Sales Cloud,Customer Relationship Management
SAP Sales Cloud,Customer Relationship Management
SAP Sales Cloud,Customer Relationship Management
SAP Sales Cloud,Customer Relationship Management
SAP Sales Cloud,Customer Relationship Management
SAP Sales Cloud,Customer Relationship Management
SAP Sales Cloud,Customer Relationship Management
SAP Commerce,Customer Relationship Management
SAP Commerce,Customer Relationship Management
taxpayer online services,Customer Relationship Management
SAP Multi-Bank Connectivity,Financial Management
SAP Contact Center,Customer Relationship Management
SAP Sales Cloud,Customer Relationship Management
SAP Sales Cloud,Customer Relationship Management
SAP Sales Cloud,Customer Relationship Management
SAP Sales Cloud,Customer Relationship Management
SAP ERP,Enterprise Management
SAP ERP,Enterprise Management
SAP ERP,Enterprise Management
SAP ERP,Enterprise Management
SAP ERP,Enterprise Management
SAP ERP,Enterprise Management
SAP Cloud Platform,Technology Platform
SAP Cloud Platform,Technology Platform
SAP Cloud Platform,Technology Platform
SAP Commercial Project Management,Product Lifecycle Management
SAP Commercial Project Management,Product Lifecycle Management
SAP Commercial Project Management,Product Lifecycle Management
SAP Commercial Project Management,Product Lifecycle Management
SAP cProject Suite,Product Lifecycle Management
SAP cProject Suite,Product Lifecycle Management
SAP Business Process Automation by Redwood,Technology Platform
SAP Customer Relationship Management,Customer Relationship Management
SAP Customer Relationship Management,Customer Relationship Management
SAP CRM Service Manager,Customer Relationship Management
SAP Customer Relationship Management,Customer Relationship Management
SAP Crystal Reports,Analytics
SAP Crystal Server,Analytics
SAP Customer Checkout,Customer Relationship Management
SAP Capital Yield Tax Management,Financial Management
SAP Capital Yield Tax Management,Financial Management
SAP Capital Yield Tax Management,Financial Management
SAP Dairy Management by msg,Product Lifecycle Management
SAP Dairy Management by msg,Product Lifecycle Management
SAP Dairy Management by msg,Product Lifecycle Management
SAP Dairy Management by msg,Product Lifecycle Management
SAP Dairy Management by msg,Product Lifecycle Management
SAP Commerce Cloud,Customer Relationship Management
SAP Dynamic Authorization Management by NextLabs,Financial Management
SAP Dynamic Authorization Management by NextLabs,Financial Management
SAP Commerce Cloud,Customer Relationship Management
SAP Commerce Cloud,Customer Relationship Management
SAP Commerce Cloud,Customer Relationship Management
SAP Commerce Cloud,Customer Relationship Management
SAP Commerce Cloud,Customer Relationship Management
SAP Data Hub,Data Management
SAP Data Services,Data Management
SAP Data Maintenance for SAP ERP by Vistex,Data Management
SAP Data Maintenance for SAP ERP by Vistex,Data Management
SAP Data Maintenance for SAP ERP by Vistex,Data Management
SAP Data Maintenance for SAP ERP by Vistex,Data Management
SAP Dealer Business Management,Customer Relationship Management
SAP Dealer Business Management,Customer Relationship Management
SAP Dealer Business Management,Customer Relationship Management
SAP Data Custodian,Data Management
SAP Data Custodian,Data Management
SAP Digital Content Processing by OpenText,Content and Collaboration
SAP Digital Content Processing by OpenText,Content and Collaboration
SAP Disclosure Management,Financial Management
SAP Defense MILSTRIP Purchasing,Supplier Relationship Management
SAP Document Center,Content and Collaboration
SAP Document Center,Content and Collaboration
SAP Document Center,Content and Collaboration
SAP Document Presentment by OpenText,Content and Collaboration
SAP Document Presentment by OpenText,Content and Collaboration
SAP Document Presentment by OpenText,Content and Collaboration
SAP Document Presentment by OpenText,Content and Collaboration
SAP Document Presentment by OpenText,Content and Collaboration
SAP Signature Management by DocuSign,Customer Relationship Management
SAP Signature Management by DocuSign,Customer Relationship Management
SAP Document Presentment by OpenText,Content and Collaboration
SAP Document Presentment by OpenText,Content and Collaboration
SAP Document Presentment by OpenText,Content and Collaboration
SAP Document Presentment by OpenText,Content and Collaboration
SAP Document Presentment by OpenText,Content and Collaboration
SAP Document Presentment by OpenText,Content and Collaboration
SAP Document Presentment by OpenText,Content and Collaboration
SAP Data Quality Management,Data Management
SAP Demand Signal Management,Supply Chain Management
SAP Dynamic Pricing by GK,Customer Relationship Management
SAP E-Recruiting,Human Capital Management
SAP Enterprise Architecture Designer,Enterprise Management
SAP EAM and service mobile app SDK,Product Lifecycle Management
SAP EAM and service mobile app SDK,Product Lifecycle Management
SAP Easy Document Management,Product Lifecycle Management
SAP ERP,Enterprise Management
SAP Engineering Control Center,Product Lifecycle Management
SAP Engineering Control Center,Product Lifecycle Management
SAP Engineering Control Center,Product Lifecycle Management
SAP Engineering Control Center,Product Lifecycle Management
SAP Engineering Control Center,Product Lifecycle Management
SAP Edge Services,Technology Platform
SAP Energy Data Management,Product Lifecycle Management
SAP Enterprise Digital Rights Management by NextLabs,Data Management
SAP Employee File Management by OpenText,Human Capital Management
SAP Employee File Management by OpenText,Human Capital Management
SAP NetWeaver,Technology Platform
SAP NetWeaver,Technology Platform
SAP NetWeaver,Technology Platform
SAP NetWeaver,Technology Platform
SAP NetWeaver,Technology Platform
"SAP Environment, Health, and Safety Management",Product Lifecycle Management
"SAP Environment, Health, and Safety Management",Product Lifecycle Management
"SAP Environment, Health, and Safety Management",Product Lifecycle Management
SAP Enterprise Inventory and Service-Level Optimization,Supply Chain Management
SAP Enable Now,Human Capital Management
SAP Enhanced Maintenance and Service Planning,Product Lifecycle Management
SAP Enterprise Project Connection,Product Lifecycle Management
SAP Smart Business,Technology Platform
SAP Enterprise Learning,Human Capital Management
SAP Environmental Compliance,Product Lifecycle Management
SAP ERP,Enterprise Management
"Choai route management, localization for Japan",Supply Chain Management
SAP ERP,Enterprise Management
SAP ERP,Enterprise Management
SAP ERP,Enterprise Management
SAP ERP,Enterprise Management
SAP ERP,Enterprise Management
SAP ERP,Enterprise Management
SAP ERP,Enterprise Management
SAP Global Trade Services,Financial Management
SAP ERP,Enterprise Management
SAP ERP,Enterprise Management
SAP ERP,Enterprise Management
SAP ERP,Enterprise Management
"logistics add-on for import/export, localization for India",Supply Chain Management
SAP ERP,Enterprise Management
SAP Event Management,Supply Chain Management
SAP Event Management,Supply Chain Management
SAP Event Management,Supply Chain Management
SAP Event Management,Supply Chain Management
SAP Event Stream Processor,Data Management
SAP Extended Warehouse Management,Supply Chain Management
SAP Extended Warehouse Management,Supply Chain Management
SAP Extended Warehouse Management,Supply Chain Management
SAP Extended Warehouse Management,Supply Chain Management
SAP Extended Warehouse Management,Supply Chain Management
SAP Extended Warehouse Management,Supply Chain Management
SAP Extended Warehouse Management,Supply Chain Management
SAP Extended Warehouse Management,Supply Chain Management
SAP Extended Diagnostics by CA,Technology Platform
SAP Extended Enterprise Content Management by OpenText,Content and Collaboration
SAP Extended Enterprise Content Management by OpenText,Content and Collaboration
SAP Extended Enterprise Content Management by OpenText,Content and Collaboration
SAP Forecasting and Replenishment,Supply Chain Management
SAP Forecasting and Replenishment,Supply Chain Management
SAP Financial Closing cockpit,Financial Management
SAP Financial Consolidation,Financial Management
SAP Fiori,Technology Platform
SAP Fiori,Technology Platform
SAP Fiori,Technology Platform
SAP Fiori,Technology Platform
SAP Fiori,Technology Platform
SAP Fiori,Technology Platform
SAP Fiori,Technology Platform
SAP Fiori,Technology Platform
SAP Fiori,Technology Platform
SAP Fiori,Technology Platform
SAP Fiori,Technology Platform
SAP Fiori,Technology Platform
SAP Fiori,Technology Platform
SAP Fiori,Technology Platform
SAP Fiori,Technology Platform
SAP Fiori,Technology Platform
,
SAP Fiori,Technology Platform
SAP Fiori,Technology Platform
SAP Fiori,Technology Platform
SAP Fiori,Technology Platform
SAP Fiori,Technology Platform
SAP Fiori,Technology Platform
SAP Fiori,Technology Platform
SAP Fiori,Technology Platform
SAP Fiori,Technology Platform
SAP Fiori,Technology Platform
SAP Fiori,Technology Platform
SAP Fiori,Technology Platform
SAP Fiori,Technology Platform
SAP Fiori,Technology Platform
SAP Fiori,Technology Platform
SAP Fiori,Technology Platform
SAP Fiori,Technology Platform
SAP Sales Cloud,Customer Relationship Management
SAP Fortify by Micro Focus,Technology Platform
SAP Fortify by Micro Focus,Technology Platform
SAP Financial Services Data Management,Financial Management
SAP Funding Management,Financial Management
SAP NetWeaver,Technology Platform
SAP Geographical Enablement Framework,Technology Platform
SAP BusinessObjects geocoding,Data Management
SAP Global Batch Traceability,Supply Chain Management
SAP Global Batch Traceability,Supply Chain Management
SAP Global Trade Services,Financial Management
SAP Global Trade Services,Financial Management
SAP Global Trade Services,Financial Management
SAP HANA,Technology Platform
SAP HANA,Technology Platform
SAP HANA Live,Technology Platform
SAP HANA Live,Technology Platform
SAP HANA Live,Technology Platform
SAP HANA Live,Technology Platform
SAP HANA Live,Technology Platform
SAP HANA Live,Technology Platform
SAP HANA Live,Technology Platform
SAP HANA Live,Technology Platform
SAP HANA Live,Technology Platform
SAP HANA Live,Technology Platform
SAP HANA Live,Technology Platform
SAP HANA Live,Technology Platform
SAP HANA Live,Technology Platform
SAP HANA Live,Technology Platform
SAP HANA Live,Technology Platform
SAP HANA Live,Technology Platform
SAP HANA Live,Technology Platform
SAP HANA Live,Technology Platform
SAP HANA Live,Technology Platform
SAP HANA Live,Technology Platform
SAP HANA Live,Technology Platform
SAP HANA Live,Technology Platform
SAP Cloud Platform,Technology Platform
SAP HANA,Technology Platform
SAP HANA,Technology Platform
SAP HANA,Technology Platform
SAP HANA,Technology Platform
SAP HANA,Technology Platform
SAP HANA,Technology Platform
SAP HANA,Technology Platform
SAP HANA,Technology Platform
SAP Health,Customer Relationship Management
SAP HANA,Technology Platform
SAP HANA,Technology Platform
SAP HANA,Technology Platform
SAP HANA,Technology Platform
SAP HANA,Technology Platform
SAP Health,Customer Relationship Management
HR renewal,Human Capital Management
HR renewal,Human Capital Management
SAP ERP,Enterprise Management
SAP ERP,Enterprise Management
SAP ERP,Enterprise Management
SAP Sales Cloud,Customer Relationship Management
SAP Sales Cloud,Customer Relationship Management
SAP Commerce,Customer Relationship Management
SAP Commerce,Customer Relationship Management
SAP Commerce,Customer Relationship Management
SAP Incentive Administration by Vistex and SAP Paybacks and Chargebacks by Vistex,Customer Relationship Management
SAP Incentive Administration by Vistex and SAP Paybacks and Chargebacks by Vistex,Customer Relationship Management
SAP Incentive Administration by Vistex and SAP Paybacks and Chargebacks by Vistex,Customer Relationship Management
SAP Incentive Administration by Vistex and SAP Paybacks and Chargebacks by Vistex,Customer Relationship Management
SAP ERP,Enterprise Management
SAP S/4HANA,Enterprise Management
SAP NetWeaver,Technology Platform
SAP Information Extraction by OpenText,Data Management
SAP Information Extraction by OpenText,Data Management
SAP Commerce,Customer Relationship Management
SAP Commerce,Customer Relationship Management
SAP Commerce,Customer Relationship Management
SAP Commerce,Customer Relationship Management
SAP Commerce,Customer Relationship Management
SAP Commerce,Customer Relationship Management
SAP Information Extraction by OpenText,Data Management
SAP Information Steward,Data Management
SAP IT Infrastructure Management,Technology Platform
SAP Innovation Management,Product Lifecycle Management
SAP Innovation Management,Product Lifecycle Management
SAP Insurance Analyzer,Financial Management
SAP Insurance Analyzer,Financial Management
SAP Workplaces for Insurance,Financial Management
SAP Workplaces for Insurance,Financial Management
SAP Policy Management,Customer Relationship Management
SAP Policy Management,Customer Relationship Management
SAP Policy Management,Customer Relationship Management
SAP Policy Management,Customer Relationship Management
SAP Policy Management,Customer Relationship Management
SAP Policy Management,Customer Relationship Management
SAP Policy Management,Customer Relationship Management
SAP Reinsurance Management,Customer Relationship Management
SAP Reinsurance Management,Customer Relationship Management
SAP Reinsurance Management,Customer Relationship Management
SAP Reinsurance Management,Customer Relationship Management
SAP Reinsurance Management,Customer Relationship Management
SAP Reinsurance Management,Customer Relationship Management
SAP Leonardo,Technology Platform
SAP Leonardo,Technology Platform
SAP Inventory Manager,Supply Chain Management
SAP Invoice Management by OpenText,Financial Management
SAP Information Steward,Data Management
SAP Information Steward,Data Management
SAP Information Steward,Data Management
SAP Classified Advertising Management,Product Lifecycle Management
extended functions for U.S. federal agencies,Financial Management
SAP R/3,Enterprise Management
SAP R/3,Enterprise Management
SAP ERP,Enterprise Management
SAP ERP,Enterprise Management
SAP ERP,Enterprise Management
SAP ERP,Enterprise Management
SAP Store Management by GK,Customer Relationship Management
SAP Store Management by GK,Customer Relationship Management
SAP Store Management by GK,Customer Relationship Management
SAP Store Management by GK,Customer Relationship Management
SAP Store Management by GK,Customer Relationship Management
SAP Store Management by GK,Customer Relationship Management
SAP Store Management by GK,Customer Relationship Management
SAP Store Management by GK,Customer Relationship Management
SAP Store Management by GK,Customer Relationship Management
SAP Landscape Management,Technology Platform
SAP Landscape Management,Technology Platform
SAP Landscape Transformation,Data Management
SAP Learning Solution,Human Capital Management
SAP Learning Solution,Human Capital Management
SAP Liquidity Management for Banking,Financial Management
SAP LoadRunner by Micro Focus,Technology Platform
SAP LoadRunner by Micro Focus,Technology Platform
SAP Landscape Transformation,Data Management
SAP Landscape Transformation,Data Management
SAP Lumira,Analytics
SAP Lumira,Analytics
SAP Lumira,Analytics
SAP Lumira,Analytics
SAP Management of Change,Product Lifecycle Management
SAP Marketing,Customer Relationship Management
SAP Marketing,Customer Relationship Management
SAP Master Data Governance,Data Management
SAP Master Data Governance,Data Management
SAP Master Data Governance,Data Management
SAP Master Data Governance,Data Management
SAP Master Data Governance,Data Management
SAP Master Data Governance,Data Management
SAP Master Data Governance,Data Management
SAP NetWeaver,Technology Platform
SAP NetWeaver,Technology Platform
SAP NetWeaver,Technology Platform
SAP NetWeaver,Technology Platform
SAP NetWeaver,Technology Platform
SAP Mobile Defense & Security,Product Lifecycle Management
SAP Meat and Fish Management by msg,Product Lifecycle Management
SAP Meter Data Management by Siemens,Data Management
SAP Meter Data Management by Siemens,Data Management
SAP Meter Data Management by Siemens,Data Management
Digital Manufacturing,Digital Manufacturing
Digital Manufacturing,Digital Manufacturing
Digital Manufacturing,Digital Manufacturing
Digital Manufacturing,Digital Manufacturing
Digital Manufacturing,Digital Manufacturing
Digital Manufacturing,Digital Manufacturing
SAP Mobile Platform,Technology Platform
SAP Mobile Platform,Technology Platform
SAP Mobile Platform,Technology Platform
SAP Multiresource Scheduling,Product Lifecycle Management
SAP Multiresource Scheduling,Product Lifecycle Management
SAP Multiresource Scheduling,Product Lifecycle Management
SAP Multiresource Scheduling,Product Lifecycle Management
SAP Multiresource Scheduling,Product Lifecycle Management
SAP Multiresource Scheduling,Product Lifecycle Management
SAP Multiresource Scheduling,Product Lifecycle Management
SAP Multiresource Scheduling,Product Lifecycle Management
SAP Multiresource Scheduling,Product Lifecycle Management
SAP NetWeaver,Technology Platform
SAP NetWeaver,Technology Platform
SAP NetWeaver,Technology Platform
SAP NetWeaver,Technology Platform
SAP NetWeaver,Technology Platform
SAP NetWeaver,Technology Platform
SAP NetWeaver,Technology Platform
SAP NetWeaver,Technology Platform
SAP NetWeaver,Technology Platform
SAP NetWeaver,Technology Platform
SAP Electronic Invoicing for Brazil,Financial Management
SAP Electronic Invoicing for Brazil,Financial Management
SAP NetWeaver,Technology Platform
SAP Invoice Management by OpenText,Financial Management
SAP Invoice Management by OpenText,Financial Management
SAP Invoice Management by OpenText,Financial Management
SAP Invoice Management by OpenText,Financial Management
SAP Store Management by GK,Customer Relationship Management
SAP Store Management by GK,Customer Relationship Management
SAP Store Management by GK,Customer Relationship Management
SAP Store Management by GK,Customer Relationship Management
SAP Store Management by GK,Customer Relationship Management
SAP Store Management by GK,Customer Relationship Management
SAP Store Management by GK,Customer Relationship Management
SAP Store Management by GK,Customer Relationship Management
SAP Store Management by GK,Customer Relationship Management
SAP Secondary Distribution for Oil & Gas,Supply Chain Management
SAP Secondary Distribution for Oil & Gas,Supply Chain Management
SAP Secondary Distribution for Oil & Gas,Supply Chain Management
SAP Store Management by GK,Customer Relationship Management
SAP Store Management by GK,Customer Relationship Management
SAP Store Management by GK,Customer Relationship Management
SAP Store Management by GK,Customer Relationship Management
SAP Store Management by GK,Customer Relationship Management
SAP Store Management by GK,Customer Relationship Management
SAP Store Management by GK,Customer Relationship Management
SAP Store Management by GK,Customer Relationship Management
SAP Omnichannel Banking,Customer Relationship Management
SAP Omnichannel Banking,Customer Relationship Management
SAP Store Management by GK,Customer Relationship Management
SAP Store Management by GK,Customer Relationship Management
SAP Store Management by GK,Customer Relationship Management
SAP Store Management by GK,Customer Relationship Management
SAP Store Management by GK,Customer Relationship Management
SAP Store Management by GK,Customer Relationship Management
SAP Store Management by GK,Customer Relationship Management
SAP Open Server,Data Management
SAP Health,Customer Relationship Management
SAP Payment Engine,Financial Management
SAP Payment Engine,Financial Management
SAP Payment Engine,Financial Management
SAP Business Planning and Consolidation,Financial Management
SAP Business Planning and Consolidation,Financial Management
SAP Process Control,Financial Management
SAP Process Control,Financial Management
SAP Intelligent Asset Management,Supply Chain Management
SAP Content Stream by Skillsoft,Content and Collaboration
Digital Manufacturing,Digital Manufacturing
Digital Manufacturing,Digital Manufacturing
Digital Manufacturing,Digital Manufacturing
SAP PLM interface,Product Lifecycle Management
SAP PLM interface,Product Lifecycle Management
SAP PLM interface,Product Lifecycle Management
SAP PLM interface,Product Lifecycle Management
SAP Portal Site Management by OpenText,Content and Collaboration
SAP Portfolio and Project Management,Product Lifecycle Management
SAP Portfolio and Project Management,Product Lifecycle Management
SAP Portfolio and Project Management,Product Lifecycle Management
SAP Point-of-Sale,Customer Relationship Management
SAP Store Management by GK,Customer Relationship Management
SAP Store Management by GK,Customer Relationship Management
SAP Point-of-Sale,Customer Relationship Management
SAP PowerDesigner,Data Management
SAP Portfolio and Project Management,Product Lifecycle Management
SAP Production and Revenue Accounting,Financial Management
SAP Predictive Analytics,Analytics
SAP Predictive Analytics,Analytics
SAP Price and Margin Management by Vendavo,Customer Relationship Management
SAP Process Control,Financial Management
SAP Process Control,Financial Management
SAP Process Control,Financial Management
SAP Product Lifecycle Costing,Product Lifecycle Management
SAP Product Lifecycle Costing,Product Lifecycle Management
SAP Product Lifecycle Costing,Product Lifecycle Management
SAP Productivity Composer by ANCILE,Human Capital Management
SAP Productivity Pak by ANCILE,Human Capital Management
SAP Promotion Management,Customer Relationship Management
SAP Promotion Management,Customer Relationship Management
SAP File Lifecycle Management,Product Lifecycle Management
SAP Public Budget Formulation,Financial Management
SAP Public Budget Formulation,Financial Management
SAP Quality Center by Micro Focus,Technology Platform
SAP Quality Center by Micro Focus,Technology Platform
SAP Quality Center by Micro Focus,Technology Platform
SAP Quality Center by Micro Focus,Technology Platform
SAP Quality Center by Micro Focus,Technology Platform
SAP Quality Center by Micro Focus,Technology Platform
SAP Quality Center by Micro Focus,Technology Platform
SAP Quality Center by Micro Focus,Technology Platform
SAP Quality Center by Micro Focus,Technology Platform
SAP Quality Center by Micro Focus,Technology Platform
SAP Quality Issue Management,Product Lifecycle Management
SAP REACH Compliance,Product Lifecycle Management
SAP Real Estate Management,Financial Management
SAP Regulation Management by Greenlight,Financial Management
SAP Replication Server,Data Management
SAP Replication Server,Data Management
SAP Replication Server,Data Management
SAP Replication Server,Data Management
SAP Replication Server,Data Management
SAP Replication Server,Data Management
SAP Replication Server,Data Management
SAP Revenue Accounting and Reporting,Financial Management
SAP Risk Management,Financial Management
SAP Risk Management,Financial Management
SAP Risk Management,Financial Management
SAP Risk Management,Financial Management
SAP Risk Management,Financial Management
SAP Roambi,Analytics
SAP Customer Activity Repository,Customer Relationship Management
SAP Real-Time Offer Management,Customer Relationship Management
SAP Sales and Operations Planning,Supply Chain Management
SAP Dairy Management by msg,Product Lifecycle Management
SAP Dairy Management by msg,Product Lifecycle Management
SAP Dairy Management by msg,Product Lifecycle Management
SAP Dairy Management by msg,Product Lifecycle Management
SAP Dairy Management by msg,Product Lifecycle Management
SAP Meat and Fish Management by msg,Product Lifecycle Management
SAP Meat and Fish Management by msg,Product Lifecycle Management
SAP Meat and Fish Management by msg,Product Lifecycle Management
SAP Meat and Fish Management by msg,Product Lifecycle Management
SAP S/4HANA,Enterprise Management
SAP S/4HANA,Enterprise Management
SAP S/4HANA,Enterprise Management
SAP S/4HANA,Enterprise Management
SAP S/4HANA,Enterprise Management
SAP S/4HANA Cloud,Enterprise Management
SAP S/4HANA Cloud,Enterprise Management
SAP S/4HANA Cloud,Enterprise Management
SAP S/4HANA Cloud,Enterprise Management
SAP S/4HANA,Enterprise Management
SAP S/4HANA,Enterprise Management
SAP S/4HANA,Enterprise Management
SAP S/4HANA,Enterprise Management
SAP S/4HANA,Enterprise Management
SAP S/4HANA,Enterprise Management
SAP Transactional Banking,Financial Management
SAP S/4HANA,Enterprise Management
SAP S/4HANA Utilities,Enterprise Management
SAP S/4HANA,Enterprise Management
SAP S/4HANA,Enterprise Management
SAP S/4HANA Supply Chain,Supply Chain Management
SAP S/4HANA Supply Chain,Supply Chain Management
SAP Revenue Accounting and Reporting,Financial Management
SAP Smart Business,Technology Platform
SAP Supply Chain Management,Supply Chain Management
SAP Screen Personas,Technology Platform
SAP Strategic Enterprise Management,Financial Management
SAP S/4HANA,Enterprise Management
SAP S/4HANA,Enterprise Management
SAP Single Sign-On,Technology Platform
SAP Smart Business,Technology Platform
SAP Smart Business,Technology Platform
SAP Smart Business,Technology Platform
SAP Smart Business,Technology Platform
SAP Smart Business,Technology Platform
SAP Smart Business,Technology Platform
SAP Smart Business,Technology Platform
SAP Smart Business,Technology Platform
SAP Smart Business,Technology Platform
SAP Smart Business,Technology Platform
SAP Smart Business,Technology Platform
SAP Smart Business,Technology Platform
SAP Supply Network Collaboration,Supply Chain Management
SAP Supply Network Collaboration,Supply Chain Management
SAP Social Media Analytics by NetBase,Customer Relationship Management
SAP Solution Manager,Technology Platform
SAP Sales Cloud,Customer Relationship Management
SAP Sales Cloud,Customer Relationship Management
SAP Sourcing and SAP Contract Lifecycle Management,Supplier Relationship Management
SAP SQL Anywhere,Data Management
SAP Supplier Relationship Management,Supplier Relationship Management
SAP Supplier Relationship Management,Supplier Relationship Management
SAP Supplier Relationship Management,Supplier Relationship Management
SAP Store Management by GK,Customer Relationship Management
SAP Store Management by GK,Customer Relationship Management
SAP Store Management by GK,Customer Relationship Management
SAP Store Management by GK,Customer Relationship Management
SAP Store Management by GK,Customer Relationship Management
SAP Store Management by GK,Customer Relationship Management
SAP Store Management by GK,Customer Relationship Management
SAP Store Management by GK,Customer Relationship Management
SAP Store Management by GK,Customer Relationship Management
SAP Strategy Management,Financial Management
SAP Supplier Lifecycle Management,Supplier Relationship Management
SAP Supply Chain Performance Management,Supply Chain Management
SAP Test Acceleration and Optimization,Technology Platform
SAP Test Data Migration Server,Data Management
SAP Test Data Migration Server,Data Management
SAP Transportation Management,Supply Chain Management
SAP Transportation Management,Supply Chain Management
SAP Transportation Management,Supply Chain Management
SAP Transportation Management,Supply Chain Management
SAP Transportation Management,Supply Chain Management
SAP Transportation Management,Supply Chain Management
SAP Transportation Management,Supply Chain Management
SAP Transportation Management,Supply Chain Management
SAP Transportation Management,Supply Chain Management
SAP Trade Management,Customer Relationship Management
SAP Trade Management,Customer Relationship Management
SAP Trade Promotion Optimization,Customer Relationship Management
SAP Accelerated Trade Promotion Planning,Customer Relationship Management
SAP Transportation Resource Planning,Supply Chain Management
SAP Transportation Resource Planning,Supply Chain Management
SAP Treasury and Risk Management,Financial Management
SAP Treasury and Risk Management,Financial Management
SAP Trade Repository Reporting by Virtusa,Financial Management
SAP User Experience Management by Knoa,Technology Platform
SAP Upstream Field Activity Management by OIS,Enterprise Management
SAP Upstream Field Activity Management by OIS,Enterprise Management
SAP Visual Business,Technology Platform
SAP Waste and Recycling solutions by PROLOGA,Product Lifecycle Management
SAP Warehouse Insights,Supply Chain Management
SAP Web Channel Experience Management,Customer Relationship Management
SAP Web Channel Experience Management,Customer Relationship Management
SAP Working Capital Analytics,Financial Management
SAP Work Manager,Enterprise Management
SAP Work Manager,Enterprise Management
SAP Workforce Deployment for Retail and Wholesale Distribution,Human Capital Management
SAP Workforce Management,Human Capital Management
SAP Workforce Scheduling and Optimization by ClickSoftware,Human Capital Management
SAP Workforce Scheduling and Optimization by ClickSoftware,Human Capital Management
SAP Extended Enterprise Content Management by OpenText,Content and Collaboration
SAP Extended Enterprise Content Management by OpenText,Content and Collaboration
SAP Extended Enterprise Content Management by OpenText,Content and Collaboration
SAP Extended Enterprise Content Management by OpenText,Content and Collaboration
SAP Yard Logistics,Supply Chain Management
SAP Direct Store Delivery,Supply Chain Management
SAP Analysis for Microsoft Office,Analytics
SAP Analysis for Microsoft Office,Analytics
SAP BusinessObjects Business Intelligence,Analytics
SAP BusinessObjects Dashboards,Analytics
SAP Data Quality Management,Data Management
SAP BusinessObjects Business Intelligence,Analytics
SAP BusinessObjects Business Intelligence,Analytics
SAP BusinessObjects Business Intelligence,Analytics
SAP BusinessObjects Explorer,Analytics
SAP Financial Information Management,Financial Management
SAP Financial Consolidation,Financial Management
SAP BusinessObjects Intercompany,Financial Management
SAP Notes Management,Financial Management
SAP Business Planning and Consolidation,Financial Management
SAP Business Planning and Consolidation,Financial Management
SAP Profitability and Cost Management,Financial Management
SAP Strategy Management,Financial Management
SAP Sustainability Performance Management,Financial Management
SAP Scheduling and Resource Management by ClickSoftware,Enterprise Management
SAP ERP,Enterprise Management
SAP Adaptive Server Enterprise,Data Management
SAP Service Virtualization by Micro Focus,Technology Platform
SAP SuccessFactors HXM Suite,Human Capital Management
Digital Manufacturing,Digital Manufacturing
software logistics toolset,Technology Platform
SAP Translation Hub,Technology Platform
SAP Supplier Relationship Management,Supplier Relationship Management
SAP Supplier Relationship Management,Supplier Relationship Management
SAP SuccessFactors HXM Suite,Human Capital Management
SAP Supplier InfoNet,Supplier Relationship Management
SAP Supplier InfoNet,Supplier Relationship Management
SAP Adaptive Server Enterprise,Data Management
SAP Open Server,Data Management
SAP Adaptive Server Enterprise,Data Management
SAP Afaria,Technology Platform
SAP Adaptive Server Enterprise,Data Management
SAP Mobile Platform,Technology Platform
Sybase EDI Server,Data Management
SAP IQ,Data Management
SAP IQ,Data Management
SAP Adaptive Server Enterprise,Data Management
SAP Open Server,Data Management
SAP Open Switch,Data Management
SAP Replication Server,Data Management
SAP Adaptive Server Enterprise,Data Management
SAP Adaptive Server Enterprise,Data Management
SAP Tax Declaration Framework for Brazil,Financial Management
SAP Technical Data Export Compliance by NextLabs,Financial Management
SAP NetWeaver,Technology Platform
SAP Fiori,Technology Platform
SAP Fiori,Technology Platform
SAP Fiori,Technology Platform
SAP Master Data Governance,Data Management
SAP Master Data Governance,Data Management
SAP Master Data Governance,Data Management
SAP Master Data Governance,Data Management
SAP Master Data Governance,Data Management
SAP Master Data Governance,Data Management
SAP Asset Information Workbench by Utopia,Enterprise Management
SAP Asset Information Workbench by Utopia,Enterprise Management
SAP Asset Information Workbench by Utopia,Enterprise Management
SAP 3D Visual Enterprise,Product Lifecycle Management
SAP 3D Visual Enterprise,Product Lifecycle Management
SAP 3D Visual Enterprise,Product Lifecycle Management
SAP 3D Visual Enterprise,Product Lifecycle Management
SAP SuccessFactors HXM Suite,Human Capital Management
SAP SuccessFactors HXM Suite,Human Capital Management
SAP Extended Enterprise Content Management by OpenText,Content and Collaboration
